{
    "jet_collection": "AntiKt4EMTopoJets",
    "calibration": {
        "collection": "AntiKt4EMTopo",
        "configuration": "HLLHC/JES_MC16_HLLHC_Aug2021_rel21.config",
        "seq": "JetArea_Residual_EtaJES",
        "area": "00-04-82"
    },
    "selection": {
        "truth_jet_matching": true,
         "truth_jet_collection": "AntiKt4TruthJets",
        "truth_primary_vertex_matching": true,
        "minimum_jvt": -1,
        "minimum_jet_pt": 20000,
        "maximum_jet_absolute_eta": 4
    },
    "vertex_collection": "PrimaryVertices",
    "dl2_configs": [],
    "variables": {
        "file": "fragments/pflow-variables.json",
        "btagging": {
            "floats": [
                "MV2c10_discriminant",
                "dipsrun420221008_pu",
                "dipsrun420221008_pb",
                "dipsrun420221008_pc",
                "DL1drun420221017_pu",
                "DL1drun420221017_pb",
                "DL1drun420221017_pc",
                "GN1run420221010_pu",
                "GN1run420221010_pb",
                "GN1run420221010_pc"
            ]
        },
        "jet" : {
            "ints" : [
                "n_truth_promptLepton"
            ]
        },
        "default_mapping": {
            "file": "fragments/default-mapping.json"
        }
    },
    "tracks": [],
    "truths": [
        {
            "file": "fragments/overlap-leptons.json"
        },
        {
            "association": {
                "file": "fragments/baseline-truth-kinematics.json",
                "particles": "promptLepton"
            },
            "decorate_summary": true
        }
    ],
    "decorate": {
        "jet_aug": false,
        "btag_jes": true,
        "soft_muon": false,
        "truth_pileup": false,
        "track_sv_info": false
    },
    "btagging_link": "btaggingLink"
}
